(kicad_sch (version 20230121) (generator eeschema)

  (uuid b2148438-6d00-47e8-8a4c-aac03a0277ed)

  (paper "A4")

  (lib_symbols
    (symbol "Amplifier_Operational:TL074" (pin_names (offset 0.127)) (in_bom yes) (on_board yes)
      (property "Reference" "U" (at 0 5.08 0)
        (effects (font (size 1.27 1.27)) (justify left))
      )
      (property "Value" "TL074" (at 0 -5.08 0)
        (effects (font (size 1.27 1.27)) (justify left))
      )
      (property "Footprint" "" (at -1.27 2.54 0)
        (effects (font (size 1.27 1.27)) hide)
      )
      (property "Datasheet" "http://www.ti.com/lit/ds/symlink/tl071.pdf" (at 1.27 5.08 0)
        (effects (font (size 1.27 1.27)) hide)
      )
      (property "ki_locked" "" (at 0 0 0)
        (effects (font (size 1.27 1.27)))
      )
      (property "ki_keywords" "quad opamp" (at 0 0 0)
        (effects (font (size 1.27 1.27)) hide)
      )
      (property "ki_description" "Quad Low-Noise JFET-Input Operational Amplifiers, DIP-14/SOIC-14" (at 0 0 0)
        (effects (font (size 1.27 1.27)) hide)
      )
      (property "ki_fp_filters" "SOIC*3.9x8.7mm*P1.27mm* DIP*W7.62mm* TSSOP*4.4x5mm*P0.65mm* SSOP*5.3x6.2mm*P0.65mm* MSOP*3x3mm*P0.5mm*" (at 0 0 0)
        (effects (font (size 1.27 1.27)) hide)
      )
      (symbol "TL074_1_1"
        (polyline
          (pts
            (xy -5.08 5.08)
            (xy 5.08 0)
            (xy -5.08 -5.08)
            (xy -5.08 5.08)
          )
          (stroke (width 0.254) (type default))
          (fill (type background))
        )
        (pin output line (at 7.62 0 180) (length 2.54)
          (name "~" (effects (font (size 1.27 1.27))))
          (number "1" (effects (font (size 1.27 1.27))))
        )
        (pin input line (at -7.62 -2.54 0) (length 2.54)
          (name "-" (effects (font (size 1.27 1.27))))
          (number "2" (effects (font (size 1.27 1.27))))
        )
        (pin input line (at -7.62 2.54 0) (length 2.54)
          (name "+" (effects (font (size 1.27 1.27))))
          (number "3" (effects (font (size 1.27 1.27))))
        )
      )
      (symbol "TL074_2_1"
        (polyline
          (pts
            (xy -5.08 5.08)
            (xy 5.08 0)
            (xy -5.08 -5.08)
            (xy -5.08 5.08)
          )
          (stroke (width 0.254) (type default))
          (fill (type background))
        )
        (pin input line (at -7.62 2.54 0) (length 2.54)
          (name "+" (effects (font (size 1.27 1.27))))
          (number "5" (effects (font (size 1.27 1.27))))
        )
        (pin input line (at -7.62 -2.54 0) (length 2.54)
          (name "-" (effects (font (size 1.27 1.27))))
          (number "6" (effects (font (size 1.27 1.27))))
        )
        (pin output line (at 7.62 0 180) (length 2.54)
          (name "~" (effects (font (size 1.27 1.27))))
          (number "7" (effects (font (size 1.27 1.27))))
        )
      )
      (symbol "TL074_3_1"
        (polyline
          (pts
            (xy -5.08 5.08)
            (xy 5.08 0)
            (xy -5.08 -5.08)
            (xy -5.08 5.08)
          )
          (stroke (width 0.254) (type default))
          (fill (type background))
        )
        (pin input line (at -7.62 2.54 0) (length 2.54)
          (name "+" (effects (font (size 1.27 1.27))))
          (number "10" (effects (font (size 1.27 1.27))))
        )
        (pin output line (at 7.62 0 180) (length 2.54)
          (name "~" (effects (font (size 1.27 1.27))))
          (number "8" (effects (font (size 1.27 1.27))))
        )
        (pin input line (at -7.62 -2.54 0) (length 2.54)
          (name "-" (effects (font (size 1.27 1.27))))
          (number "9" (effects (font (size 1.27 1.27))))
        )
      )
      (symbol "TL074_4_1"
        (polyline
          (pts
            (xy -5.08 5.08)
            (xy 5.08 0)
            (xy -5.08 -5.08)
            (xy -5.08 5.08)
          )
          (stroke (width 0.254) (type default))
          (fill (type background))
        )
        (pin input line (at -7.62 2.54 0) (length 2.54)
          (name "+" (effects (font (size 1.27 1.27))))
          (number "12" (effects (font (size 1.27 1.27))))
        )
        (pin input line (at -7.62 -2.54 0) (length 2.54)
          (name "-" (effects (font (size 1.27 1.27))))
          (number "13" (effects (font (size 1.27 1.27))))
        )
        (pin output line (at 7.62 0 180) (length 2.54)
          (name "~" (effects (font (size 1.27 1.27))))
          (number "14" (effects (font (size 1.27 1.27))))
        )
      )
      (symbol "TL074_5_1"
        (pin power_in line (at -2.54 -7.62 90) (length 3.81)
          (name "V-" (effects (font (size 1.27 1.27))))
          (number "11" (effects (font (size 1.27 1.27))))
        )
        (pin power_in line (at -2.54 7.62 270) (length 3.81)
          (name "V+" (effects (font (size 1.27 1.27))))
          (number "4" (effects (font (size 1.27 1.27))))
        )
      )
    )
    (symbol "Device:R_Small" (pin_numbers hide) (pin_names (offset 0.254) hide) (in_bom yes) (on_board yes)
      (property "Reference" "R" (at 0.762 0.508 0)
        (effects (font (size 1.27 1.27)) (justify left))
      )
      (property "Value" "R_Small" (at 0.762 -1.016 0)
        (effects (font (size 1.27 1.27)) (justify left))
      )
      (property "Footprint" "" (at 0 0 0)
        (effects (font (size 1.27 1.27)) hide)
      )
      (property "Datasheet" "~" (at 0 0 0)
        (effects (font (size 1.27 1.27)) hide)
      )
      (property "ki_keywords" "R resistor" (at 0 0 0)
        (effects (font (size 1.27 1.27)) hide)
      )
      (property "ki_description" "Resistor, small symbol" (at 0 0 0)
        (effects (font (size 1.27 1.27)) hide)
      )
      (property "ki_fp_filters" "R_*" (at 0 0 0)
        (effects (font (size 1.27 1.27)) hide)
      )
      (symbol "R_Small_0_1"
        (rectangle (start -0.762 1.778) (end 0.762 -1.778)
          (stroke (width 0.2032) (type default))
          (fill (type none))
        )
      )
      (symbol "R_Small_1_1"
        (pin passive line (at 0 2.54 270) (length 0.762)
          (name "~" (effects (font (size 1.27 1.27))))
          (number "1" (effects (font (size 1.27 1.27))))
        )
        (pin passive line (at 0 -2.54 90) (length 0.762)
          (name "~" (effects (font (size 1.27 1.27))))
          (number "2" (effects (font (size 1.27 1.27))))
        )
      )
    )
    (symbol "power:+5V" (power) (pin_names (offset 0)) (in_bom yes) (on_board yes)
      (property "Reference" "#PWR" (at 0 -3.81 0)
        (effects (font (size 1.27 1.27)) hide)
      )
      (property "Value" "+5V" (at 0 3.556 0)
        (effects (font (size 1.27 1.27)))
      )
      (property "Footprint" "" (at 0 0 0)
        (effects (font (size 1.27 1.27)) hide)
      )
      (property "Datasheet" "" (at 0 0 0)
        (effects (font (size 1.27 1.27)) hide)
      )
      (property "ki_keywords" "global power" (at 0 0 0)
        (effects (font (size 1.27 1.27)) hide)
      )
      (property "ki_description" "Power symbol creates a global label with name \"+5V\"" (at 0 0 0)
        (effects (font (size 1.27 1.27)) hide)
      )
      (symbol "+5V_0_1"
        (polyline
          (pts
            (xy -0.762 1.27)
            (xy 0 2.54)
          )
          (stroke (width 0) (type default))
          (fill (type none))
        )
        (polyline
          (pts
            (xy 0 0)
            (xy 0 2.54)
          )
          (stroke (width 0) (type default))
          (fill (type none))
        )
        (polyline
          (pts
            (xy 0 2.54)
            (xy 0.762 1.27)
          )
          (stroke (width 0) (type default))
          (fill (type none))
        )
      )
      (symbol "+5V_1_1"
        (pin power_in line (at 0 0 90) (length 0) hide
          (name "+5V" (effects (font (size 1.27 1.27))))
          (number "1" (effects (font (size 1.27 1.27))))
        )
      )
    )
    (symbol "power:-5V" (power) (pin_names (offset 0)) (in_bom yes) (on_board yes)
      (property "Reference" "#PWR" (at 0 2.54 0)
        (effects (font (size 1.27 1.27)) hide)
      )
      (property "Value" "-5V" (at 0 3.81 0)
        (effects (font (size 1.27 1.27)))
      )
      (property "Footprint" "" (at 0 0 0)
        (effects (font (size 1.27 1.27)) hide)
      )
      (property "Datasheet" "" (at 0 0 0)
        (effects (font (size 1.27 1.27)) hide)
      )
      (property "ki_keywords" "global power" (at 0 0 0)
        (effects (font (size 1.27 1.27)) hide)
      )
      (property "ki_description" "Power symbol creates a global label with name \"-5V\"" (at 0 0 0)
        (effects (font (size 1.27 1.27)) hide)
      )
      (symbol "-5V_0_0"
        (pin power_in line (at 0 0 90) (length 0) hide
          (name "-5V" (effects (font (size 1.27 1.27))))
          (number "1" (effects (font (size 1.27 1.27))))
        )
      )
      (symbol "-5V_0_1"
        (polyline
          (pts
            (xy 0 0)
            (xy 0 1.27)
            (xy 0.762 1.27)
            (xy 0 2.54)
            (xy -0.762 1.27)
            (xy 0 1.27)
          )
          (stroke (width 0) (type default))
          (fill (type outline))
        )
      )
    )
    (symbol "power:GND" (power) (pin_names (offset 0)) (in_bom yes) (on_board yes)
      (property "Reference" "#PWR" (at 0 -6.35 0)
        (effects (font (size 1.27 1.27)) hide)
      )
      (property "Value" "GND" (at 0 -3.81 0)
        (effects (font (size 1.27 1.27)))
      )
      (property "Footprint" "" (at 0 0 0)
        (effects (font (size 1.27 1.27)) hide)
      )
      (property "Datasheet" "" (at 0 0 0)
        (effects (font (size 1.27 1.27)) hide)
      )
      (property "ki_keywords" "global power" (at 0 0 0)
        (effects (font (size 1.27 1.27)) hide)
      )
      (property "ki_description" "Power symbol creates a global label with name \"GND\" , ground" (at 0 0 0)
        (effects (font (size 1.27 1.27)) hide)
      )
      (symbol "GND_0_1"
        (polyline
          (pts
            (xy 0 0)
            (xy 0 -1.27)
            (xy 1.27 -1.27)
            (xy 0 -2.54)
            (xy -1.27 -1.27)
            (xy 0 -1.27)
          )
          (stroke (width 0) (type default))
          (fill (type none))
        )
      )
      (symbol "GND_1_1"
        (pin power_in line (at 0 0 270) (length 0) hide
          (name "GND" (effects (font (size 1.27 1.27))))
          (number "1" (effects (font (size 1.27 1.27))))
        )
      )
    )
    (symbol "suf_analog_switch:CD4053" (in_bom yes) (on_board yes)
      (property "Reference" "U" (at -3.175 5.334 0)
        (effects (font (size 1.27 1.27)) (justify left))
      )
      (property "Value" "CD4053" (at -3.175 3.556 0)
        (effects (font (size 1.27 1.27)) (justify left))
      )
      (property "Footprint" "" (at 0 0 0)
        (effects (font (size 1.27 1.27)) hide)
      )
      (property "Datasheet" "" (at 0 0 0)
        (effects (font (size 1.27 1.27)) hide)
      )
      (property "ki_keywords" "CMOS Analog Switch" (at 0 0 0)
        (effects (font (size 1.27 1.27)) hide)
      )
      (property "ki_description" "Triple SPDT CMOS Analog Switch" (at 0 0 0)
        (effects (font (size 1.27 1.27)) hide)
      )
      (symbol "CD4053_1_1"
        (rectangle (start -3.81 1.905) (end 3.81 -7.62)
          (stroke (width 0.254) (type default))
          (fill (type background))
        )
        (circle (center -2.159 -2.54) (radius 0.508)
          (stroke (width 0.254) (type default))
          (fill (type none))
        )
        (polyline
          (pts
            (xy -5.08 -2.54)
            (xy -2.794 -2.54)
          )
          (stroke (width 0) (type default))
          (fill (type none))
        )
        (polyline
          (pts
            (xy -1.651 -2.413)
            (xy 2.54 -0.635)
          )
          (stroke (width 0.254) (type default))
          (fill (type none))
        )
        (polyline
          (pts
            (xy 0 -7.62)
            (xy 0 -7.112)
          )
          (stroke (width 0) (type default))
          (fill (type none))
        )
        (polyline
          (pts
            (xy 0 -6.858)
            (xy 0 -6.604)
          )
          (stroke (width 0) (type default))
          (fill (type none))
        )
        (polyline
          (pts
            (xy 0 -6.35)
            (xy 0 -6.096)
          )
          (stroke (width 0) (type default))
          (fill (type none))
        )
        (polyline
          (pts
            (xy 0 -5.842)
            (xy 0 -5.588)
          )
          (stroke (width 0) (type default))
          (fill (type none))
        )
        (polyline
          (pts
            (xy 0 -5.334)
            (xy 0 -5.08)
          )
          (stroke (width 0) (type default))
          (fill (type none))
        )
        (polyline
          (pts
            (xy 0 -4.826)
            (xy 0 -4.572)
          )
          (stroke (width 0) (type default))
          (fill (type none))
        )
        (polyline
          (pts
            (xy 0 -4.318)
            (xy 0 -4.064)
          )
          (stroke (width 0) (type default))
          (fill (type none))
        )
        (polyline
          (pts
            (xy 0 -3.81)
            (xy 0 -3.556)
          )
          (stroke (width 0) (type default))
          (fill (type none))
        )
        (polyline
          (pts
            (xy 0 -3.302)
            (xy 0 -3.048)
          )
          (stroke (width 0) (type default))
          (fill (type none))
        )
        (polyline
          (pts
            (xy 0 -2.794)
            (xy 0 -2.54)
          )
          (stroke (width 0) (type default))
          (fill (type none))
        )
        (polyline
          (pts
            (xy 0 -2.286)
            (xy 0 -2.032)
          )
          (stroke (width 0) (type default))
          (fill (type none))
        )
        (polyline
          (pts
            (xy 0 -2.286)
            (xy 0 -2.032)
          )
          (stroke (width 0) (type default))
          (fill (type none))
        )
        (polyline
          (pts
            (xy 5.08 -5.08)
            (xy 2.794 -5.08)
          )
          (stroke (width 0) (type default))
          (fill (type none))
        )
        (polyline
          (pts
            (xy 5.08 0)
            (xy 2.794 0)
          )
          (stroke (width 0) (type default))
          (fill (type none))
        )
        (circle (center 2.159 -5.08) (radius 0.508)
          (stroke (width 0.254) (type default))
          (fill (type none))
        )
        (circle (center 2.159 0) (radius 0.508)
          (stroke (width 0.254) (type default))
          (fill (type none))
        )
        (pin input line (at 0 -10.16 90) (length 2.54)
          (name "~" (effects (font (size 1.27 1.27))))
          (number "11" (effects (font (size 1.27 1.27))))
        )
        (pin passive line (at 7.62 0 180) (length 2.54)
          (name "~" (effects (font (size 1.27 1.27))))
          (number "12" (effects (font (size 1.27 1.27))))
        )
        (pin passive line (at 7.62 -5.08 180) (length 2.54)
          (name "~" (effects (font (size 1.27 1.27))))
          (number "13" (effects (font (size 1.27 1.27))))
        )
        (pin passive line (at -7.62 -2.54 0) (length 2.54)
          (name "~" (effects (font (size 1.27 1.27))))
          (number "14" (effects (font (size 1.27 1.27))))
        )
      )
      (symbol "CD4053_2_1"
        (rectangle (start -3.81 1.905) (end 3.81 -7.62)
          (stroke (width 0.254) (type default))
          (fill (type background))
        )
        (circle (center -2.159 -2.54) (radius 0.508)
          (stroke (width 0.254) (type default))
          (fill (type none))
        )
        (polyline
          (pts
            (xy -5.08 -2.54)
            (xy -2.794 -2.54)
          )
          (stroke (width 0) (type default))
          (fill (type none))
        )
        (polyline
          (pts
            (xy -1.651 -2.413)
            (xy 2.54 -0.635)
          )
          (stroke (width 0.254) (type default))
          (fill (type none))
        )
        (polyline
          (pts
            (xy 0 -7.62)
            (xy 0 -7.112)
          )
          (stroke (width 0) (type default))
          (fill (type none))
        )
        (polyline
          (pts
            (xy 0 -6.858)
            (xy 0 -6.604)
          )
          (stroke (width 0) (type default))
          (fill (type none))
        )
        (polyline
          (pts
            (xy 0 -6.35)
            (xy 0 -6.096)
          )
          (stroke (width 0) (type default))
          (fill (type none))
        )
        (polyline
          (pts
            (xy 0 -5.842)
            (xy 0 -5.588)
          )
          (stroke (width 0) (type default))
          (fill (type none))
        )
        (polyline
          (pts
            (xy 0 -5.334)
            (xy 0 -5.08)
          )
          (stroke (width 0) (type default))
          (fill (type none))
        )
        (polyline
          (pts
            (xy 0 -4.826)
            (xy 0 -4.572)
          )
          (stroke (width 0) (type default))
          (fill (type none))
        )
        (polyline
          (pts
            (xy 0 -4.318)
            (xy 0 -4.064)
          )
          (stroke (width 0) (type default))
          (fill (type none))
        )
        (polyline
          (pts
            (xy 0 -3.81)
            (xy 0 -3.556)
          )
          (stroke (width 0) (type default))
          (fill (type none))
        )
        (polyline
          (pts
            (xy 0 -3.302)
            (xy 0 -3.048)
          )
          (stroke (width 0) (type default))
          (fill (type none))
        )
        (polyline
          (pts
            (xy 0 -2.794)
            (xy 0 -2.54)
          )
          (stroke (width 0) (type default))
          (fill (type none))
        )
        (polyline
          (pts
            (xy 0 -2.286)
            (xy 0 -2.032)
          )
          (stroke (width 0) (type default))
          (fill (type none))
        )
        (polyline
          (pts
            (xy 0 -2.286)
            (xy 0 -2.032)
          )
          (stroke (width 0) (type default))
          (fill (type none))
        )
        (polyline
          (pts
            (xy 5.08 -5.08)
            (xy 2.794 -5.08)
          )
          (stroke (width 0) (type default))
          (fill (type none))
        )
        (polyline
          (pts
            (xy 5.08 0)
            (xy 2.794 0)
          )
          (stroke (width 0) (type default))
          (fill (type none))
        )
        (circle (center 2.159 -5.08) (radius 0.508)
          (stroke (width 0.254) (type default))
          (fill (type none))
        )
        (circle (center 2.159 0) (radius 0.508)
          (stroke (width 0.254) (type default))
          (fill (type none))
        )
        (pin passive line (at 7.62 -5.08 180) (length 2.54)
          (name "~" (effects (font (size 1.27 1.27))))
          (number "1" (effects (font (size 1.27 1.27))))
        )
        (pin input line (at 0 -10.16 90) (length 2.54)
          (name "~" (effects (font (size 1.27 1.27))))
          (number "10" (effects (font (size 1.27 1.27))))
        )
        (pin passive line (at -7.62 -2.54 0) (length 2.54)
          (name "~" (effects (font (size 1.27 1.27))))
          (number "15" (effects (font (size 1.27 1.27))))
        )
        (pin passive line (at 7.62 0 180) (length 2.54)
          (name "~" (effects (font (size 1.27 1.27))))
          (number "2" (effects (font (size 1.27 1.27))))
        )
      )
      (symbol "CD4053_3_1"
        (rectangle (start -3.81 1.905) (end 3.81 -7.62)
          (stroke (width 0.254) (type default))
          (fill (type background))
        )
        (circle (center -2.159 -2.54) (radius 0.508)
          (stroke (width 0.254) (type default))
          (fill (type none))
        )
        (polyline
          (pts
            (xy -5.08 -2.54)
            (xy -2.794 -2.54)
          )
          (stroke (width 0) (type default))
          (fill (type none))
        )
        (polyline
          (pts
            (xy -1.651 -2.413)
            (xy 2.54 -0.635)
          )
          (stroke (width 0.254) (type default))
          (fill (type none))
        )
        (polyline
          (pts
            (xy 0 -7.62)
            (xy 0 -7.112)
          )
          (stroke (width 0) (type default))
          (fill (type none))
        )
        (polyline
          (pts
            (xy 0 -6.858)
            (xy 0 -6.604)
          )
          (stroke (width 0) (type default))
          (fill (type none))
        )
        (polyline
          (pts
            (xy 0 -6.35)
            (xy 0 -6.096)
          )
          (stroke (width 0) (type default))
          (fill (type none))
        )
        (polyline
          (pts
            (xy 0 -5.842)
            (xy 0 -5.588)
          )
          (stroke (width 0) (type default))
          (fill (type none))
        )
        (polyline
          (pts
            (xy 0 -5.334)
            (xy 0 -5.08)
          )
          (stroke (width 0) (type default))
          (fill (type none))
        )
        (polyline
          (pts
            (xy 0 -4.826)
            (xy 0 -4.572)
          )
          (stroke (width 0) (type default))
          (fill (type none))
        )
        (polyline
          (pts
            (xy 0 -4.318)
            (xy 0 -4.064)
          )
          (stroke (width 0) (type default))
          (fill (type none))
        )
        (polyline
          (pts
            (xy 0 -3.81)
            (xy 0 -3.556)
          )
          (stroke (width 0) (type default))
          (fill (type none))
        )
        (polyline
          (pts
            (xy 0 -3.302)
            (xy 0 -3.048)
          )
          (stroke (width 0) (type default))
          (fill (type none))
        )
        (polyline
          (pts
            (xy 0 -2.794)
            (xy 0 -2.54)
          )
          (stroke (width 0) (type default))
          (fill (type none))
        )
        (polyline
          (pts
            (xy 0 -2.286)
            (xy 0 -2.032)
          )
          (stroke (width 0) (type default))
          (fill (type none))
        )
        (polyline
          (pts
            (xy 0 -2.286)
            (xy 0 -2.032)
          )
          (stroke (width 0) (type default))
          (fill (type none))
        )
        (polyline
          (pts
            (xy 5.08 -5.08)
            (xy 2.794 -5.08)
          )
          (stroke (width 0) (type default))
          (fill (type none))
        )
        (polyline
          (pts
            (xy 5.08 0)
            (xy 2.794 0)
          )
          (stroke (width 0) (type default))
          (fill (type none))
        )
        (circle (center 2.159 -5.08) (radius 0.508)
          (stroke (width 0.254) (type default))
          (fill (type none))
        )
        (circle (center 2.159 0) (radius 0.508)
          (stroke (width 0.254) (type default))
          (fill (type none))
        )
        (pin passive line (at 7.62 -5.08 180) (length 2.54)
          (name "~" (effects (font (size 1.27 1.27))))
          (number "3" (effects (font (size 1.27 1.27))))
        )
        (pin passive line (at -7.62 -2.54 0) (length 2.54)
          (name "~" (effects (font (size 1.27 1.27))))
          (number "4" (effects (font (size 1.27 1.27))))
        )
        (pin passive line (at 7.62 0 180) (length 2.54)
          (name "~" (effects (font (size 1.27 1.27))))
          (number "5" (effects (font (size 1.27 1.27))))
        )
        (pin input line (at 0 -10.16 90) (length 2.54)
          (name "~" (effects (font (size 1.27 1.27))))
          (number "9" (effects (font (size 1.27 1.27))))
        )
      )
      (symbol "CD4053_4_0"
        (pin power_in line (at 0 12.7 270) (length 2.54)
          (name "VDD" (effects (font (size 1.27 1.27))))
          (number "16" (effects (font (size 1.27 1.27))))
        )
        (pin input line (at -7.62 0 0) (length 2.54)
          (name "~{EN}" (effects (font (size 1.27 1.27))))
          (number "6" (effects (font (size 1.27 1.27))))
        )
        (pin power_in line (at 0 -12.7 90) (length 2.54)
          (name "VSS" (effects (font (size 1.27 1.27))))
          (number "7" (effects (font (size 1.27 1.27))))
        )
        (pin power_in line (at 2.54 -12.7 90) (length 2.54)
          (name "GND" (effects (font (size 1.27 1.27))))
          (number "8" (effects (font (size 1.27 1.27))))
        )
      )
      (symbol "CD4053_4_1"
        (rectangle (start -5.08 10.16) (end 7.62 -10.16)
          (stroke (width 0.254) (type default))
          (fill (type background))
        )
      )
    )
  )

  (junction (at 87.122 41.91) (diameter 0) (color 0 0 0 0)
    (uuid 2962c9f0-4544-462c-9a79-56d8c5026084)
  )
  (junction (at 60.96 60.452) (diameter 0) (color 0 0 0 0)
    (uuid 29eeb8d6-521d-4b34-ad2b-b93d4840b687)
  )
  (junction (at 87.122 50.8) (diameter 0) (color 0 0 0 0)
    (uuid 3470d8d2-b0de-434e-bf27-44d919323a8b)
  )
  (junction (at 69.596 39.37) (diameter 0) (color 0 0 0 0)
    (uuid 3b890757-bdd5-4aa4-baf0-46794828b5f9)
  )
  (junction (at 160.528 67.564) (diameter 0) (color 0 0 0 0)
    (uuid 71c9cfcc-3971-488a-9c56-d66ec01400e2)
  )
  (junction (at 161.798 67.564) (diameter 0) (color 0 0 0 0)
    (uuid 983c5d56-3dfd-4897-ac29-48cc830df2c0)
  )

  (wire (pts (xy 87.122 41.91) (xy 87.122 45.72))
    (stroke (width 0) (type default))
    (uuid 0128c40a-3e41-4b27-b57f-49841485ac46)
  )
  (wire (pts (xy 184.15 44.704) (xy 184.15 46.99))
    (stroke (width 0) (type default))
    (uuid 02604020-3ce4-4526-ad24-ff113a2089d7)
  )
  (wire (pts (xy 62.738 39.37) (xy 60.96 39.37))
    (stroke (width 0) (type default))
    (uuid 0f4339e8-3971-4d10-84b6-d1f780cd5193)
  )
  (wire (pts (xy 60.96 67.564) (xy 71.12 67.564))
    (stroke (width 0) (type default))
    (uuid 14f341bd-8dac-44c7-986f-d062fdcf46e6)
  )
  (wire (pts (xy 60.96 60.452) (xy 71.12 60.452))
    (stroke (width 0) (type default))
    (uuid 233c1dc0-2e9c-4370-a3d8-582df892dade)
  )
  (wire (pts (xy 161.798 67.564) (xy 163.068 67.564))
    (stroke (width 0) (type default))
    (uuid 267d46c8-0a5f-4223-8dc0-84b6c2fbc6d3)
  )
  (wire (pts (xy 60.96 39.37) (xy 60.96 60.452))
    (stroke (width 0) (type default))
    (uuid 2ae6d40b-d666-4bce-8383-704ef779955d)
  )
  (wire (pts (xy 87.122 35.306) (xy 87.122 41.91))
    (stroke (width 0) (type default))
    (uuid 3fa9f29a-e363-4ad2-aa48-476d2effbb4f)
  )
  (wire (pts (xy 69.342 72.644) (xy 69.342 74.676))
    (stroke (width 0) (type default))
    (uuid 457b529b-17c0-433f-bfb0-4f9bff91ffd7)
  )
  (wire (pts (xy 87.122 45.72) (xy 88.392 45.72))
    (stroke (width 0) (type default))
    (uuid 4b618447-ba10-4d7b-a1d1-fdec54b6e282)
  )
  (wire (pts (xy 103.124 53.34) (xy 103.124 58.42))
    (stroke (width 0) (type default))
    (uuid 4c55070b-d2be-4a4e-9038-ba03056f43d0)
  )
  (wire (pts (xy 161.798 67.564) (xy 161.798 68.834))
    (stroke (width 0) (type default))
    (uuid 53c210bb-e143-4add-82e9-5d12e90c4914)
  )
  (wire (pts (xy 69.342 50.8) (xy 87.122 50.8))
    (stroke (width 0) (type default))
    (uuid 54039bc8-c152-4d99-a660-8eab69b24b16)
  )
  (wire (pts (xy 69.596 39.37) (xy 69.596 35.306))
    (stroke (width 0) (type default))
    (uuid 5ee45559-90d9-4013-8f21-1f6b99ef395e)
  )
  (wire (pts (xy 104.902 53.34) (xy 103.124 53.34))
    (stroke (width 0) (type default))
    (uuid 60011b05-3de3-4a28-bb4f-97e311e27302)
  )
  (wire (pts (xy 152.908 53.594) (xy 151.13 53.594))
    (stroke (width 0) (type default))
    (uuid 615ea00f-c973-4e35-afd7-09897192190b)
  )
  (wire (pts (xy 69.342 55.372) (xy 69.342 50.8))
    (stroke (width 0) (type default))
    (uuid 69070121-e6ed-4cd6-b2b1-b85b382286b9)
  )
  (wire (pts (xy 69.596 35.306) (xy 75.946 35.306))
    (stroke (width 0) (type default))
    (uuid 6cd43b81-e31d-49c6-adf9-f2768a397120)
  )
  (wire (pts (xy 87.122 41.91) (xy 86.106 41.91))
    (stroke (width 0) (type default))
    (uuid 755969c7-ff59-42c9-bfda-3e9e6272073d)
  )
  (wire (pts (xy 160.528 66.294) (xy 160.528 67.564))
    (stroke (width 0) (type default))
    (uuid 8ccf0b94-0e46-46df-893b-78a92bba49cc)
  )
  (wire (pts (xy 87.122 50.8) (xy 88.392 50.8))
    (stroke (width 0) (type default))
    (uuid 90770918-079d-42e5-9526-fb141173c0e2)
  )
  (wire (pts (xy 121.666 50.8) (xy 120.142 50.8))
    (stroke (width 0) (type default))
    (uuid 91bdce5a-9394-4065-9e4d-175b1f9cbdac)
  )
  (wire (pts (xy 151.13 53.594) (xy 151.13 67.564))
    (stroke (width 0) (type default))
    (uuid 9b53c637-40ab-4b5d-ba26-9879b79ebf4e)
  )
  (wire (pts (xy 160.528 38.862) (xy 160.528 40.894))
    (stroke (width 0) (type default))
    (uuid a110f152-4923-43eb-a5b6-5d6eea0249f7)
  )
  (wire (pts (xy 81.026 35.306) (xy 87.122 35.306))
    (stroke (width 0) (type default))
    (uuid a669dfdf-8203-446f-9783-fd957fa094c9)
  )
  (wire (pts (xy 96.012 55.88) (xy 96.012 70.104))
    (stroke (width 0) (type default))
    (uuid aba7157e-a991-491e-94c1-70f9ce88ab8b)
  )
  (wire (pts (xy 71.12 72.644) (xy 69.342 72.644))
    (stroke (width 0) (type default))
    (uuid abfd9247-2ee6-442b-bcdf-3defa3380027)
  )
  (wire (pts (xy 70.866 39.37) (xy 69.596 39.37))
    (stroke (width 0) (type default))
    (uuid bb42977c-a665-4e1d-9781-f89421008de9)
  )
  (wire (pts (xy 87.122 57.912) (xy 87.122 50.8))
    (stroke (width 0) (type default))
    (uuid bbb9615b-6ddb-4748-9593-338662e187d4)
  )
  (wire (pts (xy 96.012 70.104) (xy 86.36 70.104))
    (stroke (width 0) (type default))
    (uuid bf53b892-3561-4ec6-b06c-d5a575f4c1f3)
  )
  (wire (pts (xy 184.15 62.23) (xy 184.15 64.516))
    (stroke (width 0) (type default))
    (uuid bf6897fc-6d4d-4d38-8349-e95c92514b41)
  )
  (wire (pts (xy 71.12 55.372) (xy 69.342 55.372))
    (stroke (width 0) (type default))
    (uuid c14c5347-f14e-48b6-8759-3971906f6955)
  )
  (wire (pts (xy 121.666 58.42) (xy 121.666 50.8))
    (stroke (width 0) (type default))
    (uuid c3d3df06-e031-4740-b721-862fc28e97fe)
  )
  (wire (pts (xy 70.866 44.45) (xy 69.596 44.45))
    (stroke (width 0) (type default))
    (uuid c3e51605-58db-47c4-9b91-0f7266ce044b)
  )
  (wire (pts (xy 67.818 39.37) (xy 69.596 39.37))
    (stroke (width 0) (type default))
    (uuid c5960a9c-9d27-4c1b-b8ee-869c305f1ff7)
  )
  (wire (pts (xy 103.124 58.42) (xy 121.666 58.42))
    (stroke (width 0) (type default))
    (uuid c87dc18f-edba-472d-b962-42982ddc675f)
  )
  (wire (pts (xy 86.36 57.912) (xy 87.122 57.912))
    (stroke (width 0) (type default))
    (uuid d1d8f8c6-4ca6-48d9-99af-d4f171192a88)
  )
  (wire (pts (xy 103.632 48.26) (xy 104.902 48.26))
    (stroke (width 0) (type default))
    (uuid e1b1d660-45f4-41fa-9677-bccb36ff5f93)
  )
  (wire (pts (xy 60.96 60.452) (xy 60.96 67.564))
    (stroke (width 0) (type default))
    (uuid e323d85d-1c4a-41ff-9236-709b623a5388)
  )
  (wire (pts (xy 69.596 44.45) (xy 69.596 45.212))
    (stroke (width 0) (type default))
    (uuid f12e92fe-18b2-4b46-b88f-29967a013f3d)
  )
  (wire (pts (xy 160.528 67.564) (xy 161.798 67.564))
    (stroke (width 0) (type default))
    (uuid f264a231-6b6b-4a67-9540-cb6c195c6fe5)
  )
  (wire (pts (xy 151.13 67.564) (xy 160.528 67.564))
    (stroke (width 0) (type default))
    (uuid faf39575-344f-48e1-b3ce-0e29fb3594e6)
  )
  (wire (pts (xy 163.068 67.564) (xy 163.068 66.294))
    (stroke (width 0) (type default))
    (uuid febc80a0-16c5-4d0f-9b59-eade128f9b67)
  )

  (symbol (lib_id "power:-5V") (at 161.798 68.834 180) (unit 1)
    (in_bom yes) (on_board yes) (dnp no) (fields_autoplaced)
    (uuid 090557ae-b6fc-4869-9337-a843e24258e7)
    (property "Reference" "#PWR05" (at 161.798 71.374 0)
      (effects (font (size 1.27 1.27)) hide)
    )
    (property "Value" "-5V" (at 161.798 72.9695 0)
      (effects (font (size 1.27 1.27)))
    )
    (property "Footprint" "" (at 161.798 68.834 0)
      (effects (font (size 1.27 1.27)) hide)
    )
    (property "Datasheet" "" (at 161.798 68.834 0)
      (effects (font (size 1.27 1.27)) hide)
    )
    (pin "1" (uuid 0691535c-576a-4518-976c-3957fe950748))
    (instances
      (project "Precision_Rectifier"
        (path "/b2148438-6d00-47e8-8a4c-aac03a0277ed"
          (reference "#PWR05") (unit 1)
        )
      )
    )
  )

  (symbol (lib_id "Amplifier_Operational:TL074") (at 78.74 57.912 0) (mirror x) (unit 2)
    (in_bom yes) (on_board yes) (dnp no)
    (uuid 1a7988e4-b3df-4e87-9ca0-1b32b15701ce)
    (property "Reference" "U1" (at 79.248 62.738 0)
      (effects (font (size 1.27 1.27)))
    )
    (property "Value" "TL074" (at 83.312 60.96 0)
      (effects (font (size 1.27 1.27)))
    )
    (property "Footprint" "" (at 77.47 60.452 0)
      (effects (font (size 1.27 1.27)) hide)
    )
    (property "Datasheet" "http://www.ti.com/lit/ds/symlink/tl071.pdf" (at 80.01 62.992 0)
      (effects (font (size 1.27 1.27)) hide)
    )
    (pin "1" (uuid a22ac84d-e649-4b2c-99cd-6eb96f23f420))
    (pin "2" (uuid 99f0165f-6152-40e7-84a3-5950a4479589))
    (pin "3" (uuid 1123f982-4c1f-40c1-9eb6-1c628cfe420b))
    (pin "5" (uuid 45175913-152c-4f1d-bfbb-0069a2f7ed0e))
    (pin "6" (uuid 5de34d4c-7eb8-4598-b636-da1a41e3b86a))
    (pin "7" (uuid 6fe38596-5e81-48eb-a276-56b7660e861c))
    (pin "10" (uuid fd9bd71d-7bb7-4c79-951f-be81cb84db56))
    (pin "8" (uuid 0ad95095-45d0-4801-8dcd-cdf82510daed))
    (pin "9" (uuid e657afca-07aa-4f79-a537-e5b25ddd0246))
    (pin "12" (uuid e3ecb3bc-3ba4-4d53-942f-9ad02be49cbc))
    (pin "13" (uuid 64986978-c116-4376-b1a6-6122b4f38689))
    (pin "14" (uuid 11d18025-386d-4ac3-875e-722e6ed1666d))
    (pin "11" (uuid f21623a0-384a-4a9d-8ce0-b20f59851bde))
    (pin "4" (uuid 325ca653-1791-4442-bd92-dbbff490b16b))
    (instances
      (project "Precision_Rectifier"
        (path "/b2148438-6d00-47e8-8a4c-aac03a0277ed"
          (reference "U1") (unit 2)
        )
      )
    )
  )

  (symbol (lib_id "Amplifier_Operational:TL074") (at 112.522 50.8 0) (unit 4)
    (in_bom yes) (on_board yes) (dnp no) (fields_autoplaced)
    (uuid 2e954a21-8cdc-443f-87ef-0be8c58291aa)
    (property "Reference" "U1" (at 112.522 42.7101 0)
      (effects (font (size 1.27 1.27)))
    )
    (property "Value" "TL074" (at 112.522 44.6311 0)
      (effects (font (size 1.27 1.27)))
    )
    (property "Footprint" "" (at 111.252 48.26 0)
      (effects (font (size 1.27 1.27)) hide)
    )
    (property "Datasheet" "http://www.ti.com/lit/ds/symlink/tl071.pdf" (at 113.792 45.72 0)
      (effects (font (size 1.27 1.27)) hide)
    )
    (pin "1" (uuid 8c679497-382d-4241-9d60-e25fec080eda))
    (pin "2" (uuid b7252628-7fcd-4c76-94cd-f730f1f4bb59))
    (pin "3" (uuid 0ab0e9ad-82bb-4540-9add-81c6ba27bf60))
    (pin "5" (uuid c853b075-36ad-4278-ae0d-9fa1cb007feb))
    (pin "6" (uuid 3758cbbb-6cc1-4696-a526-1d07e56e2067))
    (pin "7" (uuid 81b2f999-7225-404d-94c4-f1a270a0e544))
    (pin "10" (uuid 6f6af6e7-6713-4ff9-ab70-366bc8043575))
    (pin "8" (uuid 91c95cde-8ea6-4774-8988-9131fea7eb4e))
    (pin "9" (uuid 01300be9-4fc5-4ce4-8495-fb305edf7353))
    (pin "12" (uuid 23cffd57-4101-4b1e-80d6-fa41e70b4df3))
    (pin "13" (uuid 467518a6-8710-4ed6-959f-a3b1391e821b))
    (pin "14" (uuid c7e41ab2-9e1e-4c91-ba10-48dc105ba77a))
    (pin "11" (uuid 75b4a7e2-638b-404b-b86d-f3f4dc15d352))
    (pin "4" (uuid 6f3a8966-4931-4f9d-b99b-5bfe4d2af0e0))
    (instances
      (project "Precision_Rectifier"
        (path "/b2148438-6d00-47e8-8a4c-aac03a0277ed"
          (reference "U1") (unit 4)
        )
      )
    )
  )

  (symbol (lib_id "Amplifier_Operational:TL074") (at 186.69 54.61 0) (unit 5)
    (in_bom yes) (on_board yes) (dnp no) (fields_autoplaced)
    (uuid 2fbbbdde-f442-49d4-ae90-7e5ab9f23f8e)
    (property "Reference" "U1" (at 184.785 53.9663 0)
      (effects (font (size 1.27 1.27)) (justify left))
    )
    (property "Value" "TL074" (at 184.785 55.8873 0)
      (effects (font (size 1.27 1.27)) (justify left))
    )
    (property "Footprint" "" (at 185.42 52.07 0)
      (effects (font (size 1.27 1.27)) hide)
    )
    (property "Datasheet" "http://www.ti.com/lit/ds/symlink/tl071.pdf" (at 187.96 49.53 0)
      (effects (font (size 1.27 1.27)) hide)
    )
    (pin "1" (uuid caf143a8-2c54-4ae6-9850-5a4f2df9e048))
    (pin "2" (uuid 4ead21bb-0ff6-4ed3-925f-36d8e146dd2f))
    (pin "3" (uuid 748523e4-9146-4984-899b-96b8145814db))
    (pin "5" (uuid 252999b2-867b-47cd-afab-91b28910cff9))
    (pin "6" (uuid e8390e1b-fdb7-4334-942b-edc957ce8451))
    (pin "7" (uuid 4d588bc3-7094-4d22-95e2-baf0708070b9))
    (pin "10" (uuid e65ea164-bacf-49b6-a33e-101a698718bd))
    (pin "8" (uuid ed652b5f-a8c0-42e4-ac31-330513678c08))
    (pin "9" (uuid c700a7c6-5eb8-4b58-af58-6802b7d1d156))
    (pin "12" (uuid 1883a51e-046e-48df-9daf-58fbca1ba0e9))
    (pin "13" (uuid ee72b861-fcb4-411e-8542-ae40463ff493))
    (pin "14" (uuid 9e9861ec-083d-4398-9da1-402a2aa8d9d3))
    (pin "11" (uuid 75db06cd-a7c5-45a1-ac53-1a18ee3b68a1))
    (pin "4" (uuid fa43e8e2-6837-4c57-962a-1af48c17f3bc))
    (instances
      (project "Precision_Rectifier"
        (path "/b2148438-6d00-47e8-8a4c-aac03a0277ed"
          (reference "U1") (unit 5)
        )
      )
    )
  )

  (symbol (lib_id "suf_analog_switch:CD4053") (at 160.528 53.594 0) (unit 4)
    (in_bom yes) (on_board yes) (dnp no) (fields_autoplaced)
    (uuid 4764aa46-0d6e-48c3-9184-617bfe0f2fbd)
    (property "Reference" "U2" (at 168.91 52.9503 0)
      (effects (font (size 1.27 1.27)) (justify left))
    )
    (property "Value" "CD4053" (at 168.91 54.8713 0)
      (effects (font (size 1.27 1.27)) (justify left))
    )
    (property "Footprint" "" (at 160.528 53.594 0)
      (effects (font (size 1.27 1.27)) hide)
    )
    (property "Datasheet" "" (at 160.528 53.594 0)
      (effects (font (size 1.27 1.27)) hide)
    )
    (pin "11" (uuid 1f9f1be3-c091-4403-8bad-d75adedeefcf))
    (pin "12" (uuid cc96f592-7e50-444a-a475-c44d4795f103))
    (pin "13" (uuid 5cfa3673-33ff-457b-9576-9c09eeac0441))
    (pin "14" (uuid 439ac851-ca55-4b92-9a47-d11343120480))
    (pin "1" (uuid 39dc0b8b-5c80-4e32-a22e-9a46279f7b38))
    (pin "10" (uuid 7670b065-b9a2-422e-a061-98fd28704a35))
    (pin "15" (uuid e9ae50ea-96d6-46db-bb1d-25ecb917f89a))
    (pin "2" (uuid 216c0644-5911-4244-a5e0-df1868781675))
    (pin "3" (uuid 6271918e-e1ed-4c10-83b4-d50701078177))
    (pin "4" (uuid 249e4e59-900b-45dc-9a2f-54679d9bc3e6))
    (pin "5" (uuid 12352c0b-fd2d-4c2e-8622-986c87b1caa4))
    (pin "9" (uuid 5427a1f8-8044-4827-82bf-dacfb56905a0))
    (pin "16" (uuid 70f036f8-d036-4353-887c-d3e53ca9a45c))
    (pin "6" (uuid 1e5a89e3-024b-4b96-8dad-50bb1c84379f))
    (pin "7" (uuid 8bf6b58e-649c-49d7-b6ad-65c1a5362c41))
    (pin "8" (uuid aa6faa98-3319-42a6-b918-bab5a5b720f3))
    (instances
      (project "Precision_Rectifier"
        (path "/b2148438-6d00-47e8-8a4c-aac03a0277ed"
          (reference "U2") (unit 4)
        )
      )
    )
  )

  (symbol (lib_id "power:GND") (at 69.342 74.676 0) (unit 1)
    (in_bom yes) (on_board yes) (dnp no) (fields_autoplaced)
    (uuid 479786aa-781a-4514-a31e-63c10450b781)
    (property "Reference" "#PWR02" (at 69.342 81.026 0)
      (effects (font (size 1.27 1.27)) hide)
    )
    (property "Value" "GND" (at 69.342 78.8115 0)
      (effects (font (size 1.27 1.27)))
    )
    (property "Footprint" "" (at 69.342 74.676 0)
      (effects (font (size 1.27 1.27)) hide)
    )
    (property "Datasheet" "" (at 69.342 74.676 0)
      (effects (font (size 1.27 1.27)) hide)
    )
    (pin "1" (uuid 4fd4f398-660c-4c47-a0e7-5d1445772a55))
    (instances
      (project "Precision_Rectifier"
        (path "/b2148438-6d00-47e8-8a4c-aac03a0277ed"
          (reference "#PWR02") (unit 1)
        )
      )
    )
  )

  (symbol (lib_id "Device:R_Small") (at 78.486 35.306 90) (mirror x) (unit 1)
    (in_bom yes) (on_board yes) (dnp no)
    (uuid 5991cde1-6ae3-41fb-83dd-02594da4ddf7)
    (property "Reference" "R1" (at 76.2 33.274 90)
      (effects (font (size 1.27 1.27)))
    )
    (property "Value" "100k" (at 80.772 33.274 90)
      (effects (font (size 1.27 1.27)))
    )
    (property "Footprint" "" (at 78.486 35.306 0)
      (effects (font (size 1.27 1.27)) hide)
    )
    (property "Datasheet" "~" (at 78.486 35.306 0)
      (effects (font (size 1.27 1.27)) hide)
    )
    (pin "1" (uuid 083ff3d3-2d24-48f1-9c97-10b5daa85d4b))
    (pin "2" (uuid dee195e7-555e-47d1-b6d4-dd0f24114e02))
    (instances
      (project "Precision_Rectifier"
        (path "/b2148438-6d00-47e8-8a4c-aac03a0277ed"
          (reference "R1") (unit 1)
        )
      )
    )
  )

  (symbol (lib_id "power:+5V") (at 160.528 38.862 0) (unit 1)
    (in_bom yes) (on_board yes) (dnp no) (fields_autoplaced)
    (uuid 59c2fbe3-5808-4b95-b436-62744094a3e0)
    (property "Reference" "#PWR03" (at 160.528 42.672 0)
      (effects (font (size 1.27 1.27)) hide)
    )
    (property "Value" "+5V" (at 160.528 35.3601 0)
      (effects (font (size 1.27 1.27)))
    )
    (property "Footprint" "" (at 160.528 38.862 0)
      (effects (font (size 1.27 1.27)) hide)
    )
    (property "Datasheet" "" (at 160.528 38.862 0)
      (effects (font (size 1.27 1.27)) hide)
    )
    (pin "1" (uuid ed4524d0-89a1-415a-a154-fd43738f4d4a))
    (instances
      (project "Precision_Rectifier"
        (path "/b2148438-6d00-47e8-8a4c-aac03a0277ed"
          (reference "#PWR03") (unit 1)
        )
      )
    )
  )

  (symbol (lib_id "Amplifier_Operational:TL074") (at 78.74 70.104 0) (unit 3)
    (in_bom yes) (on_board yes) (dnp no)
    (uuid 5b0d874b-3c55-450b-90d5-af752fc3465c)
    (property "Reference" "U1" (at 79.248 74.93 0)
      (effects (font (size 1.27 1.27)))
    )
    (property "Value" "TL074" (at 83.566 72.898 0)
      (effects (font (size 1.27 1.27)))
    )
    (property "Footprint" "" (at 77.47 67.564 0)
      (effects (font (size 1.27 1.27)) hide)
    )
    (property "Datasheet" "http://www.ti.com/lit/ds/symlink/tl071.pdf" (at 80.01 65.024 0)
      (effects (font (size 1.27 1.27)) hide)
    )
    (pin "1" (uuid 3d252fe1-d8b3-4e9d-b15e-90cf6f8bc7c4))
    (pin "2" (uuid 404aade9-8ea9-4053-835e-8497ee3c5413))
    (pin "3" (uuid 19a97b0b-2406-4439-9479-fa189edaa666))
    (pin "5" (uuid 854d0713-879f-4adc-8843-98b29f58e8c3))
    (pin "6" (uuid 81e5b9c7-d49d-4464-a41e-11caad9b6306))
    (pin "7" (uuid 60df0db4-8381-4a07-9703-6802eb29946f))
    (pin "10" (uuid e158fbba-dd7f-47d0-b888-16b07d2a087d))
    (pin "8" (uuid d7dbfdea-6ca6-48ef-bb73-b9c5c2b42623))
    (pin "9" (uuid 7b682d20-8655-4442-ad63-37f71ea87b80))
    (pin "12" (uuid 7594e8a0-4e66-4faf-b093-6433a7ddf152))
    (pin "13" (uuid e998963e-70dc-4ece-816f-679ac9efb994))
    (pin "14" (uuid 8de1c9df-b304-4b61-8c8f-2eb80a3234a4))
    (pin "11" (uuid 37d87853-28f9-4e1f-9cf2-8125c8312eaf))
    (pin "4" (uuid 378b3a32-f3b7-4f66-baa5-4944fee59b46))
    (instances
      (project "Precision_Rectifier"
        (path "/b2148438-6d00-47e8-8a4c-aac03a0277ed"
          (reference "U1") (unit 3)
        )
      )
    )
  )

  (symbol (lib_id "suf_analog_switch:CD4053") (at 96.012 45.72 0) (mirror y) (unit 1)
    (in_bom yes) (on_board yes) (dnp no) (fields_autoplaced)
    (uuid 5ead8996-907a-47b3-a6f2-76f1d1066a9e)
    (property "Reference" "U2" (at 96.012 40.8051 0)
      (effects (font (size 1.27 1.27)))
    )
    (property "Value" "CD4053" (at 96.012 42.7261 0)
      (effects (font (size 1.27 1.27)))
    )
    (property "Footprint" "" (at 96.012 45.72 0)
      (effects (font (size 1.27 1.27)) hide)
    )
    (property "Datasheet" "" (at 96.012 45.72 0)
      (effects (font (size 1.27 1.27)) hide)
    )
    (pin "11" (uuid 7c15e964-49eb-41f1-8207-7298fe3caf4e))
    (pin "12" (uuid 8a2e7170-ce86-4f64-9334-e60319411231))
    (pin "13" (uuid ed19dce4-f480-4d7a-ab68-44b6ec1af7ba))
    (pin "14" (uuid b69ae104-0588-45e2-ae0d-414f6015f543))
    (pin "1" (uuid 0710d79f-4d65-4006-9e76-712e921f08ce))
    (pin "10" (uuid 2dbee3bc-10bd-4a3d-b950-8d8f7c31a1ec))
    (pin "15" (uuid f1c68c8b-8ccd-483d-82c6-21763a6414a1))
    (pin "2" (uuid fe600160-8e62-411f-9480-966541634b47))
    (pin "3" (uuid ee8a157e-ff1c-4ce9-b75d-3fd2fa745f49))
    (pin "4" (uuid 83a1d981-10d6-438e-bf85-a8234d30a86a))
    (pin "5" (uuid b2d6902f-a5c1-4f99-b203-b3e8bbfbd26a))
    (pin "9" (uuid 4fec3127-7dee-4435-8d3f-e530d2b34ede))
    (pin "16" (uuid 1e147144-9f5c-4b24-884c-498bd0c14cce))
    (pin "6" (uuid 0b7b0840-dc48-4261-b0c0-7822ab4ac293))
    (pin "7" (uuid 997313cd-8c0b-4891-8030-91367a00462a))
    (pin "8" (uuid fb831219-b78d-4bf4-bd62-dda92bcf9ab0))
    (instances
      (project "Precision_Rectifier"
        (path "/b2148438-6d00-47e8-8a4c-aac03a0277ed"
          (reference "U2") (unit 1)
        )
      )
    )
  )

  (symbol (lib_id "power:-5V") (at 184.15 64.516 180) (unit 1)
    (in_bom yes) (on_board yes) (dnp no) (fields_autoplaced)
    (uuid 5f7dc8aa-7de7-42ea-aace-f18bbef368cc)
    (property "Reference" "#PWR06" (at 184.15 67.056 0)
      (effects (font (size 1.27 1.27)) hide)
    )
    (property "Value" "-5V" (at 184.15 68.6515 0)
      (effects (font (size 1.27 1.27)))
    )
    (property "Footprint" "" (at 184.15 64.516 0)
      (effects (font (size 1.27 1.27)) hide)
    )
    (property "Datasheet" "" (at 184.15 64.516 0)
      (effects (font (size 1.27 1.27)) hide)
    )
    (pin "1" (uuid 77243a19-8ec8-490f-9f59-015b46e04a0c))
    (instances
      (project "Precision_Rectifier"
        (path "/b2148438-6d00-47e8-8a4c-aac03a0277ed"
          (reference "#PWR06") (unit 1)
        )
      )
    )
  )

  (symbol (lib_id "Amplifier_Operational:TL074") (at 78.486 41.91 0) (mirror x) (unit 1)
    (in_bom yes) (on_board yes) (dnp no)
    (uuid 7bd7479d-3a67-479b-a524-93be7599d3f9)
    (property "Reference" "U1" (at 78.74 46.99 0)
      (effects (font (size 1.27 1.27)))
    )
    (property "Value" "TL074" (at 83.058 44.958 0)
      (effects (font (size 1.27 1.27)))
    )
    (property "Footprint" "" (at 77.216 44.45 0)
      (effects (font (size 1.27 1.27)) hide)
    )
    (property "Datasheet" "http://www.ti.com/lit/ds/symlink/tl071.pdf" (at 79.756 46.99 0)
      (effects (font (size 1.27 1.27)) hide)
    )
    (pin "1" (uuid 6b032f65-b682-4418-8676-5a60e18c7e1c))
    (pin "2" (uuid 33ff597f-0056-4c8d-88de-e08c33a0c4fe))
    (pin "3" (uuid 855ebbfe-a3d7-42da-bc03-bd9415e9caa9))
    (pin "5" (uuid 27fb9730-59a2-47a5-81c8-2f884de45dac))
    (pin "6" (uuid 1d19c00e-c586-4055-b126-fc7e01d8919b))
    (pin "7" (uuid 7837ad1a-1a18-4320-a729-a0c73ba66cb1))
    (pin "10" (uuid 40db45c5-08d3-4491-acef-470d8e972ecd))
    (pin "8" (uuid e927374e-7d0e-4488-a2de-e90e801a5b92))
    (pin "9" (uuid 62bda392-2cd8-4be5-bb1f-76842e92a7c2))
    (pin "12" (uuid f3aa844c-cf3d-44fd-99f3-c196414107c1))
    (pin "13" (uuid 8722d2a2-2a13-4ddc-b37b-38c3db581b0a))
    (pin "14" (uuid 42ab4e78-7eae-4c7b-8eaf-f75d3fd6b03d))
    (pin "11" (uuid 88406d52-b7a5-4a85-a587-6a20f9df6afd))
    (pin "4" (uuid a8a3b78f-867e-4f0d-9b96-c78cf42193c5))
    (instances
      (project "Precision_Rectifier"
        (path "/b2148438-6d00-47e8-8a4c-aac03a0277ed"
          (reference "U1") (unit 1)
        )
      )
    )
  )

  (symbol (lib_id "power:+5V") (at 184.15 44.704 0) (unit 1)
    (in_bom yes) (on_board yes) (dnp no) (fields_autoplaced)
    (uuid cdac6849-26bd-4ca9-b5ea-88e45027f798)
    (property "Reference" "#PWR04" (at 184.15 48.514 0)
      (effects (font (size 1.27 1.27)) hide)
    )
    (property "Value" "+5V" (at 184.15 41.2021 0)
      (effects (font (size 1.27 1.27)))
    )
    (property "Footprint" "" (at 184.15 44.704 0)
      (effects (font (size 1.27 1.27)) hide)
    )
    (property "Datasheet" "" (at 184.15 44.704 0)
      (effects (font (size 1.27 1.27)) hide)
    )
    (pin "1" (uuid d309478f-ce17-4964-ac88-8e56d31c2b96))
    (instances
      (project "Precision_Rectifier"
        (path "/b2148438-6d00-47e8-8a4c-aac03a0277ed"
          (reference "#PWR04") (unit 1)
        )
      )
    )
  )

  (symbol (lib_id "power:GND") (at 69.596 45.212 0) (unit 1)
    (in_bom yes) (on_board yes) (dnp no) (fields_autoplaced)
    (uuid d8dffc91-511c-47bc-84bb-d0c08f6cdb81)
    (property "Reference" "#PWR01" (at 69.596 51.562 0)
      (effects (font (size 1.27 1.27)) hide)
    )
    (property "Value" "GND" (at 69.596 49.3475 0)
      (effects (font (size 1.27 1.27)))
    )
    (property "Footprint" "" (at 69.596 45.212 0)
      (effects (font (size 1.27 1.27)) hide)
    )
    (property "Datasheet" "" (at 69.596 45.212 0)
      (effects (font (size 1.27 1.27)) hide)
    )
    (pin "1" (uuid 0cadfdd7-d6da-4e18-acbe-994ff923d45b))
    (instances
      (project "Precision_Rectifier"
        (path "/b2148438-6d00-47e8-8a4c-aac03a0277ed"
          (reference "#PWR01") (unit 1)
        )
      )
    )
  )

  (symbol (lib_id "Device:R_Small") (at 65.278 39.37 90) (unit 1)
    (in_bom yes) (on_board yes) (dnp no) (fields_autoplaced)
    (uuid ea206105-c67a-4c61-aaf6-0e9e6f00e295)
    (property "Reference" "R2" (at 65.278 35.6235 90)
      (effects (font (size 1.27 1.27)))
    )
    (property "Value" "100k" (at 65.278 37.5445 90)
      (effects (font (size 1.27 1.27)))
    )
    (property "Footprint" "" (at 65.278 39.37 0)
      (effects (font (size 1.27 1.27)) hide)
    )
    (property "Datasheet" "~" (at 65.278 39.37 0)
      (effects (font (size 1.27 1.27)) hide)
    )
    (pin "1" (uuid 66f2a143-29e1-4f6b-a996-a19702b346f1))
    (pin "2" (uuid 878413ac-384b-4afd-b512-6979b173a2d8))
    (instances
      (project "Precision_Rectifier"
        (path "/b2148438-6d00-47e8-8a4c-aac03a0277ed"
          (reference "R2") (unit 1)
        )
      )
    )
  )

  (sheet_instances
    (path "/" (page "1"))
  )
)
